<svg xmlns="http://www.w3.org/2000/svg" width="10.35" height="10.35" viewBox="0 0 10.35 10.35">
  <title>linkedin-10x10</title>
  <g id="7379e526-f3a4-4bb1-b7e8-d22669b196f3" data-name="Layer 2">
    <g id="fc84ed0f-abc1-4c19-8a34-ebab94d85774" data-name="Isolation Mode">
      <g>
        <rect x="0.84" y="1.48" width="8.79" height="7.77" style="fill: #fff"/>
        <path d="M9.87,0H.49A.49.49,0,0,0,0,.49V9.87a.49.49,0,0,0,.49.49H9.87a.49.49,0,0,0,.49-.49V.49A.49.49,0,0,0,9.87,0ZM3.11,8.74H1.61V3.88H3.11ZM2.37,3.34a.69.69,0,0,1-.74-.7.69.69,0,0,1,.75-.71.7.7,0,1,1,0,1.41ZM8.73,8.74H7.2V6C7.2,5.42,7,5,6.43,5a.92.92,0,0,0-.85.57,1.06,1.06,0,0,0-.06.38v2.8H4V3.88H5.34v.67h0A2,2,0,0,1,7,3.77c1,0,1.76.66,1.76,2.08Z" style="fill: #0177b5"/>
      </g>
    </g>
  </g>
</svg>
