<svg xmlns="http://www.w3.org/2000/svg" width="20" height="20" viewBox="0 0 20 20">
  <title>linkedin-20x20</title>
  <g id="ed86f757-33d2-427b-936e-df02d574ba82" data-name="Layer 2">
    <g id="716079a3-aa9d-498a-9ef5-9d73946e9c04" data-name="Isolation Mode">
      <g>
        <rect x="1.62" y="2.85" width="16.98" height="15" style="fill: #fff"/>
        <path d="M19.06,0H.94A.94.94,0,0,0,0,.94V19.06A.94.94,0,0,0,.94,20H19.06a.94.94,0,0,0,.94-.94V.94A.94.94,0,0,0,19.06,0ZM6,16.88H3.12V7.5H6ZM4.57,6.46A1.33,1.33,0,0,1,3.15,5.11,1.33,1.33,0,0,1,4.59,3.74a1.36,1.36,0,1,1,0,2.71Zm12.3,10.42h-3v-5.2c0-1.21-.43-2-1.5-2a1.78,1.78,0,0,0-1.64,1.09,2,2,0,0,0-.12.73v5.41h-3V7.5h2.62V8.78h.07a3.81,3.81,0,0,1,3.08-1.5c1.95,0,3.41,1.27,3.41,4Z" style="fill: #0177b5"/>
      </g>
    </g>
  </g>
</svg>
