<?xml version="1.0" encoding="utf-8"?>
<!-- Generator: Adobe Illustrator 20.1.0, SVG Export Plug-In . SVG Version: 6.00 Build 0)  -->
<svg version="1.1" xmlns="http://www.w3.org/2000/svg" xmlns:xlink="http://www.w3.org/1999/xlink" x="0px" y="0px" width="14.7px"
	 height="18px" viewBox="0 0 14.7 18" enable-background="new 0 0 14.7 18" xml:space="preserve">
<g id="Layer_1">
</g>
<g id="Isolation_Mode">
	<g>
		<path fill-rule="evenodd" clip-rule="evenodd" d="M10.8,0c0,0,0.1,0,0.1,0c0.1,1.3-0.4,2.2-1,2.9C9.4,3.6,8.6,4.2,7.3,4.1
			C7.2,2.9,7.7,2,8.3,1.3C8.8,0.7,9.8,0.1,10.8,0z M12.3,9.9c-0.2-1.9,0.8-3,1.9-3.7c-0.6-0.9-1.6-1.5-2.9-1.8
			c-1.1-0.2-2,0.2-2.9,0.5C8.1,5,7.8,5.2,7.5,5.2C7,5.2,6.6,4.9,6.2,4.8C5.8,4.6,5.3,4.5,4.9,4.4C3.9,4.3,3,4.6,2.3,5
			C1,5.8,0.1,7.4,0,9.3c0,0.3,0,0.5,0,0.8c0.2,2.7,1.2,4.9,2.6,6.5c0.5,0.6,1.1,1.2,1.9,1.3c1.3,0.1,2.1-0.7,3.2-0.7
			c1.1,0,1.8,0.7,2.9,0.7c1.2,0,1.9-1.1,2.5-1.8c0.6-0.9,1.1-1.8,1.5-2.9c0,0,0,0,0,0C13.4,12.6,12.4,11.6,12.3,9.9z"/>
	</g>
</g>
</svg>
