<!-- Generator: Adobe Illustrator 21.1.0, SVG Export Plug-In  -->
<svg version="1.1"
	 xmlns="http://www.w3.org/2000/svg" xmlns:xlink="http://www.w3.org/1999/xlink" xmlns:a="http://ns.adobe.com/AdobeSVGViewerExtensions/3.0/"
	 x="0px" y="0px" width="336.069px" height="75px" viewBox="0 0 336.069 75" style="enable-background:new 0 0 336.069 75;"
	 xml:space="preserve">
<style type="text/css">
	.st0{fill:#E6E7E8;}
	.st1{fill:#FFFFFF;}
	.st2{fill:#0177B5;}
	.st3{fill:#D8D2C4;}
	.st4{fill:#ABA89E;}
	.st5{fill:#ABAAA0;}
	.st6{fill:#A03123;}
	.st7{fill:#E94F3D;}
	.st8{fill:#0072CB;}
	.st9{enable-background:new    ;}
	.st10{clip-path:url(#SVGID_4_);}
	.st11{clip-path:url(#SVGID_5_);}
	.st12{clip-path:url(#SVGID_6_);}
	.st13{clip-path:url(#SVGID_8_);}
	.st14{clip-path:url(#SVGID_10_);}
	.st15{clip-path:url(#SVGID_12_);}
</style>
<defs>
</defs>
<g>
	<circle class="st0" cx="37.5" cy="37.5" r="37.5"/>
	<g>
		<rect x="15.916" y="15.559" class="st1" width="43.167" height="43.882"/>
		<path class="st2" d="M58.344,14.5H16.656c-1.191,0-2.156,0.965-2.156,2.156v41.688c0,1.191,0.965,2.156,2.156,2.156h41.688
			c1.191,0,2.156-0.965,2.156-2.156V16.656C60.5,15.465,59.534,14.5,58.344,14.5z M28.309,53.312h-6.638V31.749h6.638V53.312z
			 M25.011,29.355c-1.988,0-3.313-1.387-3.271-3.101c-0.042-1.795,1.284-3.142,3.313-3.142c2.03,0,3.313,1.347,3.354,3.142
			C28.407,27.968,27.082,29.355,25.011,29.355z M53.297,53.312h-6.803v-11.95c0-2.778-0.984-4.675-3.445-4.675
			c-1.88,0-3.327,1.279-3.775,2.514c-0.179,0.441-0.268,1.058-0.268,1.676v12.435h-6.802l-0.006-21.564h6.022v2.954h0.159
			c0.895-1.367,3.462-3.439,7.087-3.439c4.475,0,7.832,2.91,7.832,9.26V53.312z"/>
	</g>
</g>
<g>
	<circle class="st0" cx="124.523" cy="37.5" r="37.5"/>
	<g>
		<path class="st3" d="M147.523,51.171c0,1.665-1.349,3.014-3.014,3.014h-39.972c-1.665,0-3.014-1.349-3.014-3.014V23.829
			c0-1.665,1.349-3.014,3.014-3.014h39.972c1.665,0,3.014,1.349,3.014,3.014V51.171z"/>
		<path class="st4" d="M147.523,24.759v26.412c0,1.665-1.349,3.014-3.014,3.014h-3.661L124.04,41.909L147.523,24.759z"/>
		<polygon class="st5" points="108.809,54.185 147.523,25.91 147.523,24.758 107.232,54.185 		"/>
		<path class="st6" d="M147.523,23.829v27.342c0,0.295-0.042,0.58-0.123,0.85c-0.366,1.251-1.521,2.164-2.891,2.164h-2.225V22.34
			l0.144-0.105l1.944-1.42h0.137C146.174,20.815,147.523,22.165,147.523,23.829z"/>
		<path class="st7" d="M144.509,20.815h-0.137l-1.944,1.42l-0.144,0.105l-17.604,12.857l-17.917-13.086l-1.775-1.296h-0.45
			c-1.665,0-3.014,1.35-3.014,3.014v1.635v25.707c0,0.295,0.042,0.58,0.123,0.85c0.366,1.251,1.521,2.164,2.891,2.164h2.225V29.29
			l13.003,9.497l4.275,3.122l0.788,0.576l4.915-3.589l12.541-9.159l0.144-0.105l5.095-3.72v-2.082
			C147.523,22.165,146.174,20.815,144.509,20.815z"/>
	</g>
</g>
<g>
	<circle class="st0" cx="211.546" cy="37.5" r="37.5"/>
	<g>
		<rect x="191.35" y="25.978" class="st1" width="41.976" height="23.122"/>
		<g>
			<path class="st8" d="M200.914,32.412c-1.701,0-3.115,1.677-3.115,4.648s1.294,4.864,3.139,4.864c1.845,0,3-1.768,3-4.834
				C203.938,34.741,203.022,32.412,200.914,32.412z"/>
			<path class="st8" d="M232.484,25.024c-0.705,0-17.942,0-17.942,0v-9.384l-25.997,4.828v33.795l25.997,5.099v-9.493
				c0,0,16.965,0,18.104,0c0.868,0,1.899-0.976,1.899-1.844s0-19.583,0-20.939C234.546,25.729,233.19,25.024,232.484,25.024z
				 M207.047,37.515c-0.155,5.343-3.33,7.236-5.99,7.26c-2.084,0.019-5.889-1.15-5.889-7.715c0-5.511,3.516-7.461,5.96-7.499
				C204.172,29.512,207.215,31.717,207.047,37.515z M233.027,48.403h-18.484V35.222c0,0,4.435,3.526,4.76,3.797
				c0.325,0.271,0.868,0.38,1.139,0.163c0.271-0.217,12.585-10.09,12.585-10.09V48.403z M233.027,27.465L219.9,37.88l-5.357-4.231
				v-7.16h18.484V27.465z"/>
		</g>
	</g>
</g>
<g>
	<circle class="st0" cx="298.569" cy="37.5" r="37.5"/>
	<g class="st9">
		<g>
			<defs>
				<rect id="SVGID_1_" x="278.407" y="12.5" width="40.323" height="50"/>
			</defs>
			<clipPath id="SVGID_4_">
				<use xlink:href="#SVGID_1_"  style="overflow:visible;"/>
			</clipPath>
			<g class="st10">
				<defs>
					<path id="SVGID_2_" d="M312.149,39.66c-0.495-4.184,1.588-8.252,5.271-10.297c-1.833-2.738-4.799-4.509-8.079-4.824
						c-2.727-0.246-5.469,0.251-7.935,1.44c-0.778,0.373-1.608,0.626-2.463,0.749c-1.227-0.126-2.419-0.483-3.514-1.051
						c-1.133-0.456-2.311-0.794-3.514-1.008c-2.521-0.32-5.073,0.267-7.2,1.656c-3.921,2.688-6.278,7.127-6.308,11.881v2.203
						c0.433,6.607,2.955,12.906,7.2,17.987c1.236,1.776,3.072,3.044,5.17,3.571c3.442,0.418,5.76-2.059,8.943-2.002
						c3.183,0.058,5.012,1.959,7.978,1.959c3.427,0,5.357-2.88,6.927-5.069c1.776-2.419,3.161-5.101,4.104-7.949v-0.101
						C314.968,47.266,312.413,43.716,312.149,39.66z M308.088,12.5h0.346c0.247,2.913-0.717,5.798-2.664,7.978
						c-1.678,2.319-4.432,3.609-7.287,3.413c-0.208-2.842,0.772-5.642,2.707-7.733C303.006,14.189,305.439,12.899,308.088,12.5z"/>
				</defs>
				<clipPath id="SVGID_5_">
					<use xlink:href="#SVGID_2_"  style="overflow:visible;"/>
				</clipPath>
				<g class="st11">
					<defs>
						<rect id="SVGID_3_" x="270.948" y="3.427" width="55.242" height="68.548"/>
					</defs>
					<clipPath id="SVGID_6_">
						<use xlink:href="#SVGID_3_"  style="overflow:visible;"/>
					</clipPath>
					<rect x="277.399" y="11.492" class="st12" width="42.339" height="51.531"/>
				</g>
			</g>
		</g>
	</g>
</g>
</svg>